{
  "artists": {
    "href": "https://api.spotify.com/v1/search?query=artist%3A+wiz+khalifa&type=artist&offset=0&limit=1",
    "items": [
      {
        "external_urls": {
          "spotify": "https://open.spotify.com/artist/137W8MRPWKqSmrBGDBFSop"
        },
        "followers": {
          "href": null,
          "total": 10328393
        },
        "genres": [
          "dance pop",
          "hip hop",
          "pittsburgh rap",
          "pop rap",
          "rap",
          "southern hip hop",
          "trap"
        ],
        "href": "https://api.spotify.com/v1/artists/137W8MRPWKqSmrBGDBFSop",
        "id": "137W8MRPWKqSmrBGDBFSop",
        "images": [
          {
            "height": 640,
            "url": "https://i.scdn.co/image/ab6761610000e5eb4bdf6db5203f2a0e44002620",
            "width": 640
          },
          {
            "height": 320,
            "url": "https://i.scdn.co/image/ab676161000051744bdf6db5203f2a0e44002620",
            "width": 320
          },
          {
            "height": 160,
            "url": "https://i.scdn.co/image/ab6761610000f1784bdf6db5203f2a0e44002620",
            "width": 160
          }
        ],
        "name": "Wiz Khalifa",
        "popularity": 87,
        "type": "artist",
        "uri": "spotify:artist:137W8MRPWKqSmrBGDBFSop"
      }
    ],
    "limit": 1,
    "next": "https://api.spotify.com/v1/search?query=artist%3A+wiz+khalifa&type=artist&offset=1&limit=1",
    "offset": 0,
    "previous": null,
    "total": 12
  }
}